VHDL-FSM-master/VHDL-FSM-master/simulation/qsim/fsm_machine.msim.vcd
$comment
	File created using the following command:
		vcd file fsm_machine.msim.vcd -direction
$end
$date
	Tue Jun 28 15:03:57 2016
$end
$version
	ModelSim Version 10.1d
$end
$timescale
	1ps
$end
$scope module diplay_tester_vlg_vec_tst $end
$var reg 1 ! b25 $end
$var reg 1 " b50 $end
$var reg 1 # b100 $end
$var reg 1 $ clock $end
$var reg 1 % reset $end
$var wire 1 & cents0 [6] $end
$var wire 1 ' cents0 [5] $end
$var wire 1 ( cents0 [4] $end
$var wire 1 ) cents0 [3] $end
$var wire 1 * cents0 [2] $end
$var wire 1 + cents0 [1] $end
$var wire 1 , cents0 [0] $end
$var wire 1 - cents1 [6] $end
$var wire 1 . cents1 [5] $end
$var wire 1 / cents1 [4] $end
$var wire 1 0 cents1 [3] $end
$var wire 1 1 cents1 [2] $end
$var wire 1 2 cents1 [1] $end
$var wire 1 3 cents1 [0] $end
$var wire 1 4 reais0 [6] $end
$var wire 1 5 reais0 [5] $end
$var wire 1 6 reais0 [4] $end
$var wire 1 7 reais0 [3] $end
$var wire 1 8 reais0 [2] $end
$var wire 1 9 reais0 [1] $end
$var wire 1 : reais0 [0] $end
$var wire 1 ; reais1 [6] $end
$var wire 1 < reais1 [5] $end
$var wire 1 = reais1 [4] $end
$var wire 1 > reais1 [3] $end
$var wire 1 ? reais1 [2] $end
$var wire 1 @ reais1 [1] $end
$var wire 1 A reais1 [0] $end
$var wire 1 B test [11] $end
$var wire 1 C test [10] $end
$var wire 1 D test [9] $end
$var wire 1 E test [8] $end
$var wire 1 F test [7] $end
$var wire 1 G test [6] $end
$var wire 1 H test [5] $end
$var wire 1 I test [4] $end
$var wire 1 J test [3] $end
$var wire 1 K test [2] $end
$var wire 1 L test [1] $end
$var wire 1 M test [0] $end
$var wire 1 N sampler $end
$scope module i1 $end
$var wire 1 O gnd $end
$var wire 1 P vcc $end
$var wire 1 Q unknown $end
$var tri1 1 R devclrn $end
$var tri1 1 S devpor $end
$var tri1 1 T devoe $end
$var wire 1 U test[0]~output_o $end
$var wire 1 V test[1]~output_o $end
$var wire 1 W test[2]~output_o $end
$var wire 1 X test[3]~output_o $end
$var wire 1 Y test[4]~output_o $end
$var wire 1 Z test[5]~output_o $end
$var wire 1 [ test[6]~output_o $end
$var wire 1 \ test[7]~output_o $end
$var wire 1 ] test[8]~output_o $end
$var wire 1 ^ test[9]~output_o $end
$var wire 1 _ test[10]~output_o $end
$var wire 1 ` test[11]~output_o $end
$var wire 1 a cents0[0]~output_o $end
$var wire 1 b cents0[1]~output_o $end
$var wire 1 c cents0[2]~output_o $end
$var wire 1 d cents0[3]~output_o $end
$var wire 1 e cents0[4]~output_o $end
$var wire 1 f cents0[5]~output_o $end
$var wire 1 g cents0[6]~output_o $end
$var wire 1 h cents1[0]~output_o $end
$var wire 1 i cents1[1]~output_o $end
$var wire 1 j cents1[2]~output_o $end
$var wire 1 k cents1[3]~output_o $end
$var wire 1 l cents1[4]~output_o $end
$var wire 1 m cents1[5]~output_o $end
$var wire 1 n cents1[6]~output_o $end
$var wire 1 o reais0[0]~output_o $end
$var wire 1 p reais0[1]~output_o $end
$var wire 1 q reais0[2]~output_o $end
$var wire 1 r reais0[3]~output_o $end
$var wire 1 s reais0[4]~output_o $end
$var wire 1 t reais0[5]~output_o $end
$var wire 1 u reais0[6]~output_o $end
$var wire 1 v reais1[0]~output_o $end
$var wire 1 w reais1[1]~output_o $end
$var wire 1 x reais1[2]~output_o $end
$var wire 1 y reais1[3]~output_o $end
$var wire 1 z reais1[4]~output_o $end
$var wire 1 { reais1[5]~output_o $end
$var wire 1 | reais1[6]~output_o $end
$var wire 1 } reset~input_o $end
$var wire 1 ~ clock~input_o $end
$var wire 1 !! clock~inputclkctrl_outclk $end
$var wire 1 "! b25~input_o $end
$var wire 1 #! BUT25|FF1|stored~q $end
$var wire 1 $! BUT25|FF2|stored~q $end
$var wire 1 %! BUT25|FF3|stored~q $end
$var wire 1 &! BUT25|saida~0_combout $end
$var wire 1 '! saldo[0]~4_combout $end
$var wire 1 (! b50~input_o $end
$var wire 1 )! BUT50|FF1|stored~feeder_combout $end
$var wire 1 *! BUT50|FF1|stored~q $end
$var wire 1 +! BUT50|FF2|stored~feeder_combout $end
$var wire 1 ,! BUT50|FF2|stored~q $end
$var wire 1 -! BUT50|FF3|stored~q $end
$var wire 1 .! BUT50|saida~0_combout $end
$var wire 1 /! Add2~0_combout $end
$var wire 1 0! saldo[1]~6_combout $end
$var wire 1 1! Add0~1_combout $end
$var wire 1 2! Add1~0_combout $end
$var wire 1 3! Add0~42_combout $end
$var wire 1 4! Add1~1 $end
$var wire 1 5! Add1~2_combout $end
$var wire 1 6! Add0~40_combout $end
$var wire 1 7! Add0~2 $end
$var wire 1 8! Add0~3_combout $end
$var wire 1 9! Add0~41_combout $end
$var wire 1 :! b100~input_o $end
$var wire 1 ;! BUT100|FF1|stored~q $end
$var wire 1 <! BUT100|FF2|stored~feeder_combout $end
$var wire 1 =! BUT100|FF2|stored~q $end
$var wire 1 >! BUT100|FF3|stored~q $end
$var wire 1 ?! saldo[2]~5_combout $end
$var wire 1 @! saldo[2]~5clkctrl_outclk $end
$var wire 1 A! Add0~4 $end
$var wire 1 B! Add0~5_combout $end
$var wire 1 C! Add1~3 $end
$var wire 1 D! Add1~4_combout $end
$var wire 1 E! Add2~1 $end
$var wire 1 F! Add2~2_combout $end
$var wire 1 G! Add0~38_combout $end
$var wire 1 H! Add0~39_combout $end
$var wire 1 I! Add1~5 $end
$var wire 1 J! Add1~6_combout $end
$var wire 1 K! Add2~3 $end
$var wire 1 L! Add2~4_combout $end
$var wire 1 M! Add0~36_combout $end
$var wire 1 N! Add0~6 $end
$var wire 1 O! Add0~7_combout $end
$var wire 1 P! Add0~37_combout $end
$var wire 1 Q! Add2~5 $end
$var wire 1 R! Add2~6_combout $end
$var wire 1 S! Add1~7 $end
$var wire 1 T! Add1~8_combout $end
$var wire 1 U! Add0~34_combout $end
$var wire 1 V! Add0~8 $end
$var wire 1 W! Add0~9_combout $end
$var wire 1 X! Add0~35_combout $end
$var wire 1 Y! Add0~10 $end
$var wire 1 Z! Add0~11_combout $end
$var wire 1 [! Add1~9 $end
$var wire 1 \! Add1~10_combout $end
$var wire 1 ]! Add2~7 $end
$var wire 1 ^! Add2~8_combout $end
$var wire 1 _! Add0~32_combout $end
$var wire 1 `! Add0~33_combout $end
$var wire 1 a! Add1~11 $end
$var wire 1 b! Add1~12_combout $end
$var wire 1 c! Add2~9 $end
$var wire 1 d! Add2~10_combout $end
$var wire 1 e! Add0~30_combout $end
$var wire 1 f! Add0~12 $end
$var wire 1 g! Add0~13_combout $end
$var wire 1 h! Add0~31_combout $end
$var wire 1 i! Add0~14 $end
$var wire 1 j! Add0~15_combout $end
$var wire 1 k! Add1~13 $end
$var wire 1 l! Add1~14_combout $end
$var wire 1 m! Add2~11 $end
$var wire 1 n! Add2~12_combout $end
$var wire 1 o! Add0~0_combout $end
$var wire 1 p! Add0~17_combout $end
$var wire 1 q! Add1~15 $end
$var wire 1 r! Add1~16_combout $end
$var wire 1 s! Add2~13 $end
$var wire 1 t! Add2~14_combout $end
$var wire 1 u! Add0~26_combout $end
$var wire 1 v! Add0~16 $end
$var wire 1 w! Add0~19_combout $end
$var wire 1 x! Add0~27_combout $end
$var wire 1 y! Add1~17 $end
$var wire 1 z! Add1~18_combout $end
$var wire 1 {! Add2~15 $end
$var wire 1 |! Add2~16_combout $end
$var wire 1 }! Add0~28_combout $end
$var wire 1 ~! Add0~20 $end
$var wire 1 !" Add0~21_combout $end
$var wire 1 "" Add0~29_combout $end
$var wire 1 #" Add0~22 $end
$var wire 1 $" Add0~23_combout $end
$var wire 1 %" Add2~17 $end
$var wire 1 &" Add2~18_combout $end
$var wire 1 '" Add1~19 $end
$var wire 1 (" Add1~20_combout $end
$var wire 1 )" Add0~18_combout $end
$var wire 1 *" Add0~25_combout $end
$var wire 1 +" CON|bcd~6_combout $end
$var wire 1 ," CON|bcd~7_combout $end
$var wire 1 -" CON|bcd~8_combout $end
$var wire 1 ." CON|bcd~11_combout $end
$var wire 1 /" CON|bcd~9_combout $end
$var wire 1 0" CON|bcd~10_combout $end
$var wire 1 1" CON|bcd~14_combout $end
$var wire 1 2" CON|bcd~12_combout $end
$var wire 1 3" CON|bcd~13_combout $end
$var wire 1 4" CON|bcd~17_combout $end
$var wire 1 5" CON|bcd~16_combout $end
$var wire 1 6" CON|bcd~15_combout $end
$var wire 1 7" CON|bcd~19_combout $end
$var wire 1 8" CON|bcd~18_combout $end
$var wire 1 9" CON|bcd~20_combout $end
$var wire 1 :" CON|bcd~21_combout $end
$var wire 1 ;" CON|bcd~22_combout $end
$var wire 1 <" CON|bcd~23_combout $end
$var wire 1 =" CON|bcd~26_combout $end
$var wire 1 >" CON|bcd~25_combout $end
$var wire 1 ?" CON|bcd~24_combout $end
$var wire 1 @" CON|unidade[2]~1_combout $end
$var wire 1 A" CON|unidade[3]~2_combout $end
$var wire 1 B" CON|unidade[1]~0_combout $end
$var wire 1 C" CON|D1|Mux6~0_combout $end
$var wire 1 D" CON|D1|Mux5~0_combout $end
$var wire 1 E" CON|D1|Mux4~0_combout $end
$var wire 1 F" CON|D1|Mux3~0_combout $end
$var wire 1 G" CON|D1|Mux2~0_combout $end
$var wire 1 H" CON|D1|Mux1~0_combout $end
$var wire 1 I" CON|D1|Mux0~0_combout $end
$var wire 1 J" CON|dezena[0]~0_combout $end
$var wire 1 K" CON|bcd~29_combout $end
$var wire 1 L" CON|bcd~27_combout $end
$var wire 1 M" CON|bcd~28_combout $end
$var wire 1 N" CON|LessThan0~0_combout $end
$var wire 1 O" CON|LessThan6~0_combout $end
$var wire 1 P" CON|bcd~3_combout $end
$var wire 1 Q" CON|bcd~59_combout $end
$var wire 1 R" CON|bcd~31_combout $end
$var wire 1 S" CON|bcd~32_combout $end
$var wire 1 T" CON|bcd~33_combout $end
$var wire 1 U" CON|bcd~34_combout $end
$var wire 1 V" CON|bcd~30_combout $end
$var wire 1 W" CON|LessThan8~0_combout $end
$var wire 1 X" CON|bcd~35_combout $end
$var wire 1 Y" CON|bcd~36_combout $end
$var wire 1 Z" CON|bcd~37_combout $end
$var wire 1 [" CON|bcd~39_combout $end
$var wire 1 \" CON|bcd~38_combout $end
$var wire 1 ]" CON|bcd~41_combout $end
$var wire 1 ^" CON|bcd~40_combout $end
$var wire 1 _" CON|bcd~43_combout $end
$var wire 1 `" CON|bcd~42_combout $end
$var wire 1 a" CON|bcd~46_combout $end
$var wire 1 b" CON|bcd~45_combout $end
$var wire 1 c" CON|bcd~47_combout $end
$var wire 1 d" CON|bcd~44_combout $end
$var wire 1 e" CON|dezena[3]~3_combout $end
$var wire 1 f" CON|dezena[1]~1_combout $end
$var wire 1 g" CON|dezena[2]~2_combout $end
$var wire 1 h" CON|D2|Mux6~0_combout $end
$var wire 1 i" CON|D2|Mux5~0_combout $end
$var wire 1 j" CON|D2|Mux4~0_combout $end
$var wire 1 k" CON|D2|Mux3~0_combout $end
$var wire 1 l" CON|D2|Mux2~0_combout $end
$var wire 1 m" CON|D2|Mux1~0_combout $end
$var wire 1 n" CON|D2|Mux0~0_combout $end
$var wire 1 o" CON|bcd~57_combout $end
$var wire 1 p" CON|bcd~56_combout $end
$var wire 1 q" CON|bcd~58_combout $end
$var wire 1 r" CON|bcd~50_combout $end
$var wire 1 s" CON|bcd~48_combout $end
$var wire 1 t" CON|bcd~49_combout $end
$var wire 1 u" CON|bcd~51_combout $end
$var wire 1 v" CON|bcd~53_combout $end
$var wire 1 w" CON|bcd~54_combout $end
$var wire 1 x" CON|bcd~55_combout $end
$var wire 1 y" CON|bcd~52_combout $end
$var wire 1 z" CON|centena[3]~3_combout $end
$var wire 1 {" CON|centena[2]~2_combout $end
$var wire 1 |" CON|centena[0]~0_combout $end
$var wire 1 }" CON|centena[1]~1_combout $end
$var wire 1 ~" CON|D3|Mux6~0_combout $end
$var wire 1 !# CON|D3|Mux5~0_combout $end
$var wire 1 "# CON|D3|Mux4~0_combout $end
$var wire 1 ## CON|D3|Mux3~0_combout $end
$var wire 1 $# CON|D3|Mux2~0_combout $end
$var wire 1 %# CON|D3|Mux1~0_combout $end
$var wire 1 &# CON|D3|Mux0~0_combout $end
$var wire 1 '# CON|milhares[0]~16_combout $end
$var wire 1 (# CON|milhares[2]~3_combout $end
$var wire 1 )# CON|milhares[2]~17_combout $end
$var wire 1 *# CON|milhares[1]~15_combout $end
$var wire 1 +# CON|D4|Mux6~0_combout $end
$var wire 1 ,# CON|D4|Mux5~0_combout $end
$var wire 1 -# CON|D4|Mux4~0_combout $end
$var wire 1 .# CON|D4|Mux3~0_combout $end
$var wire 1 /# CON|D4|Mux2~0_combout $end
$var wire 1 0# CON|D4|Mux1~0_combout $end
$var wire 1 1# CON|D4|Mux0~0_combout $end
$var wire 1 2# saldo [11] $end
$var wire 1 3# saldo [10] $end
$var wire 1 4# saldo [9] $end
$var wire 1 5# saldo [8] $end
$var wire 1 6# saldo [7] $end
$var wire 1 7# saldo [6] $end
$var wire 1 8# saldo [5] $end
$var wire 1 9# saldo [4] $end
$var wire 1 :# saldo [3] $end
$var wire 1 ;# saldo [2] $end
$var wire 1 <# saldo [1] $end
$var wire 1 =# saldo [0] $end
$upscope $end
$upscope $end
$enddefinitions $end
#0
$dumpvars
1!
0"
0#
0$
0%
0,
0+
0*
0)
0(
0'
1&
03
02
01
00
0/
0.
1-
0:
09
08
07
06
05
14
0A
0@
0?
0>
0=
0<
1;
0M
0L
0K
0J
0I
0H
0G
0F
0E
0D
0C
0B
xN
0O
1P
xQ
1R
1S
1T
0U
0V
0W
0X
0Y
0Z
0[
0\
0]
0^
0_
0`
0a
0b
0c
0d
0e
0f
1g
0h
0i
0j
0k
0l
0m
1n
0o
0p
0q
0r
0s
0t
1u
0v
0w
0x
0y
0z
0{
1|
0}
0~
0!!
1"!
0#!
0$!
0%!
0&!
0'!
0(!
0)!
0*!
0+!
0,!
0-!
0.!
1/!
10!
01!
12!
13!
04!
05!
16!
07!
08!
19!
0:!
0;!
0<!
0=!
0>!
0?!
0@!
1A!
1B!
1C!
0D!
0E!
0F!
0G!
0H!
0I!
1J!
1K!
0L!
0M!
0N!
1O!
0P!
0Q!
1R!
1S!
1T!
1U!
1V!
0W!
1X!
0Y!
0Z!
0[!
0\!
1]!
1^!
1_!
1`!
1a!
0b!
0c!
0d!
0e!
1f!
0g!
0h!
0i!
0j!
0k!
0l!
1m!
0n!
0o!
0p!
1q!
0r!
0s!
0t!
0u!
1v!
0w!
0x!
0y!
0z!
1{!
0|!
0}!
0~!
0!"
0""
1#"
0$"
0%"
0&"
1'"
0("
0)"
0*"
0+"
0,"
0-"
0."
0/"
00"
01"
02"
03"
04"
05"
06"
07"
08"
09"
0:"
0;"
0<"
0="
0>"
0?"
0@"
0A"
0B"
0C"
0D"
0E"
0F"
0G"
0H"
0I"
1J"
0K"
1L"
1M"
0N"
0O"
0P"
0Q"
0R"
0S"
0T"
0U"
1V"
0W"
1X"
1Y"
1Z"
1["
0\"
1]"
1^"
1_"
0`"
0a"
1b"
1c"
1d"
0e"
1f"
1g"
0h"
0i"
0j"
0k"
0l"
0m"
0n"
1o"
0p"
1q"
0r"
0s"
0t"
1u"
0v"
0w"
1x"
1y"
0z"
1{"
1|"
1}"
0~"
0!#
0"#
0##
0$#
0%#
0&#
1'#
0(#
0)#
1*#
0+#
0,#
0-#
0.#
0/#
00#
11#
z=#
0<#
0;#
0:#
09#
08#
07#
06#
05#
04#
03#
02#
$end
#5000
1$
1~
1!!
0N
#10000
0$
0~
0!!
1N
#15000
1$
1~
1!!
0N
#20000
0$
0~
0!!
1N
#25000
1$
1~
1!!
0N
#30000
1%
0$
1}
0~
0!!
1N
#35000
1$
1~
1!!
0N
1#!
#40000
0$
0~
0!!
1N
